^C:\USERS\MAN-MADE\SOURCE\REPOS\15.4\15.4.CPP
C:\USERS\MAN-MADE\SOURCE\REPOS\15.4\X64\DEBUG\VC143.PDB
C:\USERS\MAN-MADE\SOURCE\REPOS\15.4\X64\DEBUG\VC143.IDB
C:\USERS\MAN-MADE\SOURCE\REPOS\15.4\X64\DEBUG\15.4.OBJ
